#REFERENCE,a5d1d067074cce28c4bad105e44e3080,tcp,5,udp,6,ip,18,conversation,20,signature,14,bytes,10,duration,12
#OPEN,a5d1d067074cce28c4bad105e44e3080,tcp,4,udp,6,ip,25,conversation,32,signature,14,bytes,21,duration,23
#CLOSE,a5d1d067074cce28c4bad105e44e3080,tcp,5,udp,6,ip,22,conversation,32,signature,12,bytes,5,duration,27
#PARTIAL,a5d1d067074cce28c4bad105e44e3080,tcp,5,udp,5,ip,16,conversation,21,signature,17,bytes,8,duration,10
#INCREMENTAL,a5d1d067074cce28c4bad105e44e3080,tcp,9,udp,6,ip,32,conversation,85,signature,17,bytes,34,duration,60
