#REFERENCE,efc0b5c85b6053475886e500fe39390a,tcp,2,udp,6,ip,22,conversation,25,signature,6,bytes,13,duration,8
#OPEN,efc0b5c85b6053475886e500fe39390a,tcp,2,udp,6,ip,25,conversation,31,signature,6,bytes,10,duration,5
#CLOSE,efc0b5c85b6053475886e500fe39390a,tcp,2,udp,5,ip,13,conversation,11,signature,4,bytes,3,duration,8
#PARTIAL,efc0b5c85b6053475886e500fe39390a,tcp,2,udp,6,ip,23,conversation,26,signature,6,bytes,10,duration,12
#INCREMENTAL,efc0b5c85b6053475886e500fe39390a,tcp,2,udp,7,ip,34,conversation,68,signature,6,bytes,23,duration,25
