#REFERENCE,ef53c40aa634d66b7f35fc441895b67a,tcp,9,udp,6,ip,18,conversation,25,signature,13,bytes,13,duration,12
#OPEN,ef53c40aa634d66b7f35fc441895b67a,tcp,24,udp,6,ip,19,conversation,39,signature,13,bytes,10,duration,12
#CLOSE,ef53c40aa634d66b7f35fc441895b67a,tcp,22,udp,6,ip,15,conversation,33,signature,11,bytes,5,duration,10
#PARTIAL,ef53c40aa634d66b7f35fc441895b67a,tcp,25,udp,6,ip,25,conversation,49,signature,13,bytes,13,duration,13
#INCREMENTAL,ef53c40aa634d66b7f35fc441895b67a,tcp,34,udp,6,ip,32,conversation,121,signature,13,bytes,28,duration,35
