#REFERENCE,09531f851ef74a7238685fd287a395bd,tcp,2,udp,6,ip,18,conversation,19,signature,5,bytes,10,duration,5
#OPEN,09531f851ef74a7238685fd287a395bd,tcp,2,udp,6,ip,22,conversation,23,signature,5,bytes,8,duration,6
#CLOSE,09531f851ef74a7238685fd287a395bd,tcp,2,udp,6,ip,15,conversation,15,signature,4,bytes,6,duration,7
#PARTIAL,09531f851ef74a7238685fd287a395bd,tcp,2,udp,5,ip,20,conversation,22,signature,5,bytes,7,duration,15
#INCREMENTAL,09531f851ef74a7238685fd287a395bd,tcp,2,udp,6,ip,35,conversation,60,signature,5,bytes,21,duration,28
