#REFERENCE,500dccbba8aef2010b287210d66d42d6,tcp,2,udp,6,ip,17,conversation,41,signature,19,bytes,35,duration,7
#OPEN,500dccbba8aef2010b287210d66d42d6,tcp,2,udp,6,ip,22,conversation,52,signature,19,bytes,33,duration,13
#CLOSE,500dccbba8aef2010b287210d66d42d6,tcp,3,udp,6,ip,23,conversation,28,signature,17,bytes,6,duration,18
#PARTIAL,500dccbba8aef2010b287210d66d42d6,tcp,3,udp,6,ip,23,conversation,47,signature,19,bytes,34,duration,15
#INCREMENTAL,500dccbba8aef2010b287210d66d42d6,tcp,4,udp,6,ip,30,conversation,127,signature,19,bytes,73,duration,46
