#REFERENCE,d4c7f1f80883412f9796f1270accff50,tcp,2,udp,5,ip,20,conversation,25,signature,5,bytes,10,duration,14
#OPEN,d4c7f1f80883412f9796f1270accff50,tcp,3,udp,6,ip,19,conversation,43,signature,5,bytes,34,duration,28
#CLOSE,d4c7f1f80883412f9796f1270accff50,tcp,2,udp,6,ip,24,conversation,47,signature,5,bytes,33,duration,32
#PARTIAL,d4c7f1f80883412f9796f1270accff50,tcp,2,udp,5,ip,21,conversation,45,signature,6,bytes,32,duration,34
#INCREMENTAL,d4c7f1f80883412f9796f1270accff50,tcp,3,udp,6,ip,37,conversation,76,signature,6,bytes,50,duration,52
