#REFERENCE,6d2320af561b2315c1241e3efd86067f,tcp,1,udp,4,ip,8,conversation,6,signature,4,bytes,3,duration,1
#OPEN,6d2320af561b2315c1241e3efd86067f,tcp,1,udp,5,ip,10,conversation,8,signature,4,bytes,4,duration,1
#CLOSE,6d2320af561b2315c1241e3efd86067f,tcp,1,udp,6,ip,13,conversation,11,signature,3,bytes,2,duration,0
#PARTIAL,6d2320af561b2315c1241e3efd86067f,tcp,2,udp,5,ip,13,conversation,11,signature,4,bytes,3,duration,3
#INCREMENTAL,6d2320af561b2315c1241e3efd86067f,tcp,2,udp,6,ip,21,conversation,30,signature,4,bytes,9,duration,4
