#REFERENCE,933b11bc4799f8d9f65466fb2e3ea659,tcp,2,udp,6,ip,20,conversation,24,signature,6,bytes,12,duration,10
#OPEN,933b11bc4799f8d9f65466fb2e3ea659,tcp,2,udp,6,ip,21,conversation,23,signature,6,bytes,11,duration,10
#CLOSE,933b11bc4799f8d9f65466fb2e3ea659,tcp,2,udp,5,ip,13,conversation,18,signature,5,bytes,6,duration,14
#PARTIAL,933b11bc4799f8d9f65466fb2e3ea659,tcp,2,udp,6,ip,29,conversation,34,signature,6,bytes,9,duration,25
#INCREMENTAL,933b11bc4799f8d9f65466fb2e3ea659,tcp,2,udp,6,ip,37,conversation,75,signature,6,bytes,26,duration,49
