#REFERENCE,089fa533ffc194658e05e6792febb0d9,tcp,2,udp,5,ip,15,conversation,15,signature,12,bytes,12,duration,6
#OPEN,089fa533ffc194658e05e6792febb0d9,tcp,2,udp,6,ip,23,conversation,29,signature,12,bytes,10,duration,16
#CLOSE,089fa533ffc194658e05e6792febb0d9,tcp,2,udp,6,ip,23,conversation,29,signature,10,bytes,6,duration,17
#PARTIAL,089fa533ffc194658e05e6792febb0d9,tcp,2,udp,5,ip,17,conversation,17,signature,12,bytes,10,duration,8
#INCREMENTAL,089fa533ffc194658e05e6792febb0d9,tcp,2,udp,6,ip,34,conversation,75,signature,12,bytes,26,duration,41
