#REFERENCE,c916a5b04f559ea612e4c67ef41e9bad,tcp,1,udp,6,ip,13,conversation,11,signature,7,bytes,5,duration,5
#OPEN,c916a5b04f559ea612e4c67ef41e9bad,tcp,1,udp,5,ip,15,conversation,12,signature,7,bytes,4,duration,5
#CLOSE,c916a5b04f559ea612e4c67ef41e9bad,tcp,1,udp,6,ip,12,conversation,11,signature,6,bytes,3,duration,5
#PARTIAL,c916a5b04f559ea612e4c67ef41e9bad,tcp,1,udp,6,ip,14,conversation,13,signature,7,bytes,3,duration,5
#INCREMENTAL,c916a5b04f559ea612e4c67ef41e9bad,tcp,1,udp,6,ip,22,conversation,36,signature,7,bytes,10,duration,15
