#REFERENCE,f39959a7ccd9a10a4567302cbe14b72f,tcp,0,udp,3,ip,6,conversation,3,signature,2,bytes,1,duration,0
#OPEN,f39959a7ccd9a10a4567302cbe14b72f,tcp,0,udp,3,ip,6,conversation,3,signature,2,bytes,1,duration,0
#CLOSE,f39959a7ccd9a10a4567302cbe14b72f,tcp,0,udp,2,ip,4,conversation,2,signature,2,bytes,1,duration,0
#PARTIAL,f39959a7ccd9a10a4567302cbe14b72f,tcp,1,udp,2,ip,6,conversation,4,signature,2,bytes,0,duration,0
#INCREMENTAL,f39959a7ccd9a10a4567302cbe14b72f,tcp,1,udp,3,ip,8,conversation,9,signature,2,bytes,2,duration,0
