#REFERENCE,1a987d856a13c3293d872d0c04e59b49,tcp,2,udp,6,ip,21,conversation,20,signature,13,bytes,12,duration,7
#OPEN,1a987d856a13c3293d872d0c04e59b49,tcp,2,udp,6,ip,25,conversation,31,signature,13,bytes,11,duration,13
#CLOSE,1a987d856a13c3293d872d0c04e59b49,tcp,2,udp,6,ip,22,conversation,22,signature,4,bytes,6,duration,15
#PARTIAL,1a987d856a13c3293d872d0c04e59b49,tcp,2,udp,6,ip,27,conversation,35,signature,13,bytes,10,duration,17
#INCREMENTAL,1a987d856a13c3293d872d0c04e59b49,tcp,2,udp,6,ip,39,conversation,88,signature,13,bytes,27,duration,45
