#REFERENCE,57f98d16ac439a11012860f88db21831,tcp,2,udp,6,ip,20,conversation,19,signature,5,bytes,13,duration,5
#OPEN,57f98d16ac439a11012860f88db21831,tcp,2,udp,6,ip,19,conversation,18,signature,5,bytes,10,duration,5
#CLOSE,57f98d16ac439a11012860f88db21831,tcp,2,udp,6,ip,23,conversation,25,signature,4,bytes,7,duration,14
#PARTIAL,57f98d16ac439a11012860f88db21831,tcp,2,udp,5,ip,19,conversation,20,signature,5,bytes,9,duration,12
#INCREMENTAL,57f98d16ac439a11012860f88db21831,tcp,2,udp,6,ip,36,conversation,63,signature,5,bytes,26,duration,31
