#REFERENCE,f22571f2ab50cdd6a32779313872d108,tcp,2,udp,4,ip,8,conversation,6,signature,5,bytes,2,duration,1
#OPEN,f22571f2ab50cdd6a32779313872d108,tcp,1,udp,4,ip,7,conversation,5,signature,5,bytes,1,duration,1
#CLOSE,f22571f2ab50cdd6a32779313872d108,tcp,3,udp,5,ip,11,conversation,10,signature,5,bytes,1,duration,2
#PARTIAL,f22571f2ab50cdd6a32779313872d108,tcp,3,udp,3,ip,8,conversation,6,signature,5,bytes,0,duration,2
#INCREMENTAL,f22571f2ab50cdd6a32779313872d108,tcp,4,udp,5,ip,12,conversation,21,signature,5,bytes,2,duration,5
