#REFERENCE,2fccaa39533de02490b1c6395878dd79,tcp,2,udp,5,ip,14,conversation,18,signature,5,bytes,9,duration,12
#OPEN,2fccaa39533de02490b1c6395878dd79,tcp,2,udp,6,ip,21,conversation,28,signature,5,bytes,6,duration,11
#CLOSE,2fccaa39533de02490b1c6395878dd79,tcp,2,udp,6,ip,20,conversation,23,signature,4,bytes,7,duration,11
#PARTIAL,2fccaa39533de02490b1c6395878dd79,tcp,2,udp,6,ip,29,conversation,35,signature,5,bytes,7,duration,28
#INCREMENTAL,2fccaa39533de02490b1c6395878dd79,tcp,2,udp,6,ip,35,conversation,86,signature,5,bytes,20,duration,50
