#REFERENCE,95d85aa629a786bb67439a064c4349ec,tcp,2,udp,6,ip,18,conversation,19,signature,5,bytes,14,duration,7
#OPEN,95d85aa629a786bb67439a064c4349ec,tcp,2,udp,6,ip,18,conversation,17,signature,5,bytes,12,duration,5
#CLOSE,95d85aa629a786bb67439a064c4349ec,tcp,2,udp,6,ip,17,conversation,16,signature,4,bytes,9,duration,7
#PARTIAL,95d85aa629a786bb67439a064c4349ec,tcp,2,udp,5,ip,15,conversation,16,signature,5,bytes,11,duration,6
#INCREMENTAL,95d85aa629a786bb67439a064c4349ec,tcp,2,udp,6,ip,29,conversation,49,signature,5,bytes,32,duration,18
