#REFERENCE,6e442c5ef460bee4c9457c6bf7a132d6,tcp,2,udp,6,ip,17,conversation,17,signature,4,bytes,11,duration,6
#OPEN,6e442c5ef460bee4c9457c6bf7a132d6,tcp,2,udp,5,ip,12,conversation,12,signature,4,bytes,9,duration,6
#CLOSE,6e442c5ef460bee4c9457c6bf7a132d6,tcp,2,udp,6,ip,23,conversation,23,signature,3,bytes,8,duration,16
#PARTIAL,6e442c5ef460bee4c9457c6bf7a132d6,tcp,2,udp,5,ip,19,conversation,22,signature,4,bytes,9,duration,15
#INCREMENTAL,6e442c5ef460bee4c9457c6bf7a132d6,tcp,2,udp,6,ip,33,conversation,57,signature,4,bytes,26,duration,37
