#REFERENCE,8462a62f13f92c34e4b89a7d13a185ad,tcp,2,udp,6,ip,17,conversation,17,signature,4,bytes,10,duration,5
#OPEN,8462a62f13f92c34e4b89a7d13a185ad,tcp,2,udp,6,ip,16,conversation,15,signature,4,bytes,9,duration,5
#CLOSE,8462a62f13f92c34e4b89a7d13a185ad,tcp,2,udp,6,ip,14,conversation,14,signature,3,bytes,6,duration,6
#PARTIAL,8462a62f13f92c34e4b89a7d13a185ad,tcp,2,udp,6,ip,26,conversation,27,signature,4,bytes,8,duration,14
#INCREMENTAL,8462a62f13f92c34e4b89a7d13a185ad,tcp,2,udp,6,ip,33,conversation,56,signature,4,bytes,23,duration,25
